day4.utf8
…
# look at individual values
knn_res %>%
  collect_metrics(summarize = FALSE)

## # A tibble: 80 x 6
##    id     neighbors .metric .estimator .estimate .config             
##    <chr>      <dbl> <chr>   <chr>          <dbl> <fct>               
##  1 Fold01         1 rmse    standard        2.92 Preprocessor1_Model1
##  2 Fold02         1 rmse    standard        2.78 Preprocessor1_Model1
##  3 Fold03         1 rmse    standard        2.73 Preprocessor1_Model1
##  4 Fold04         1 rmse    standard        2.72 Preprocessor1_Model1
##  5 Fold05         1 rmse    standard        3.28 Preprocessor1_Model1
##  6 Fold06         1 rmse    standard        2.70 Preprocessor1_Model1
##  7 Fold07         1 rmse    standard        2.84 Preprocessor1_Model1
##  8 Fold08         1 rmse    standard        3.44 Preprocessor1_Model1
##  9 Fold09         1 rmse    standard        3.04 Preprocessor1_Model1
## 10 Fold10         1 rmse    standard        2.97 Preprocessor1_Model1
## #  with 70 more rows
…
# pick the best model 
knn_res %>%
  select_best()

## # A tibble: 1 x 2
##   neighbors .config             
##       <dbl> <fct>               
## 1         9 Preprocessor1_Model5

# look at predicted values from the resamples
knn_res %>%
  collect_predictions()

## # A tibble: 6,000 x 6
##    id     .pred  .row neighbors     y .config             
##    <chr>  <dbl> <int>     <dbl> <dbl> <fct>               
##  1 Fold01  28.5     5         1  28.6 Preprocessor1_Model1
##  2 Fold01  42.6    19         1  48.5 Preprocessor1_Model1
##  3 Fold01  32.9    22         1  30.1 Preprocessor1_Model1
##  4 Fold01  39.3    23         1  34.3 Preprocessor1_Model1
##  5 Fold01  39.9    31         1  45.4 Preprocessor1_Model1
##  6 Fold01  46.5    55         1  46.8 Preprocessor1_Model1
##  7 Fold01  45.4    58         1  48.3 Preprocessor1_Model1
##  8 Fold01  41.2    73         1  46.8 Preprocessor1_Model1
##  9 Fold01  37.3    85         1  38.8 Preprocessor1_Model1
## 10 Fold01  43.4    88         1  45.9 Preprocessor1_Model1
## #  with 5,990 more rows
…
